Jongman et al. (2000)
…
Let’s go back to our Tamil data from earlier. It’s here in case you don’t have it in your R
environment.

tam <- read.csv('tam.csv') #Read in the data file
tam <- as_tibble(tam)
tam

## # A tibble: 1,458 × 11
##      sub   POA token syll_dur v_dur    vot    Av   Ahi max23 HiDiff F23Diff
##    <int> <int> <int>    <dbl> <dbl>  <dbl> <dbl> <dbl> <dbl>  <dbl>   <dbl>
##  1    16     3     7    0.313 0.276 0.0371  38     0.4  10.2   37.6     0.4
##  2    16     3     9    0.290 0.244 0.0461  36.4   0.7  10.5   35.7     0.7
##  3    16     2     3    0.271 0.243 0.028   51.2   1     7.5   50.2     1  
##  4    16     1     3    0.340 0.323 0.0168  51.1   1.3  15.8   49.8     1.3
##  5    16     3    10    0.297 0.260 0.0373  32.3   1.6  10.5   30.7     1.6
##  6    16     2     4    0.272 0.258 0.0143  38.8   1.9   5.5   36.9     1.9
##  7    16     4     9    0.211 0.188 0.0231  32.9   2.3   3.2   30.6     2.3
##  8    20     3    86    0.439 0.387 0.052   34.1  12.8  31.8   21.3     2.3
##  9    16     3    11    0.267 0.227 0.0395  32.1   2.4  13.3   29.7     2.4
## 10    16     2     5    0.230 0.212 0.0173  40.8   2.9  -0.8   37.9     2.9
## # … with 1,448 more rows
…
